{
    "orders": [
        {
            "account_type": 2,
            "amount": 1500,
            "bank": {
                "id": 2951,
                "nickname": "BofA Core Checking"
            },
            "batch_id": 80,
            "buyer": {
                "buyer_avatar": "https://d7630u3gvmjyq.cloudfront.net/",
                "buyer_fullname": "Lokesh Raj Sharma",
                "buyer_id": 2556,
                "has_avatar": false
            },
            "current_location": "39.0437011719,-77.4875030518",
            "date": "May 26",
            "date_settled": "2015-04-22T18:42:20.047134",
            "discount": 0,
            "facilitator_fee": 0,
            "fee": 0.25,
            "id": 4955,
            "is_buyer": false,
            "note": "",
            "resource_uri": null,
            "status": 3,
            "status_url": "",
            "supp_id": "",
            "ticket_number": 1,
            "tip": 0,
            "total": 1500
        },
        {
            "account_type": 2,
            "amount": 300,
            "bank": {
                "id": 3019,
                "nickname": "BofA Core Checking"
            },
            "batch_id": 80,
            "buyer": {
                "buyer_avatar": "https://d7630u3gvmjyq.cloudfront.net/",
                "buyer_fullname": "Uttam  Nagaju",
                "buyer_id": 2729,
                "has_avatar": false
            },
            "current_location": "39.0437011719,-77.4875030518",
            "date": "May 26",
            "date_settled": "2015-05-29T13:40:20.047134",
            "discount": 0,
            "facilitator_fee": 0,
            "fee": 0.25,
            "id": 4953,
            "is_buyer": false,
            "note": "",
            "resource_uri": null,
            "status": 3,
            "status_url": "",
            "supp_id": "",
            "ticket_number": 1,
            "tip": 0,
            "total": 300
        },
        {
            "account_type": 2,
            "amount": 500,
            "bank": {
                "id": 3597,
                "nickname": "BofA Core Checking"
            },
            "batch_id": 80,
            "buyer": {
                "buyer_avatar": "https://d7630u3gvmjyq.cloudfront.net/",
                "buyer_fullname": "Sovit  Khadka",
                "buyer_id": 3334,
                "has_avatar": false
            },
            "current_location": "39.0437011719,-77.4875030518",
            "date": "May 26",
            "date_settled": "2015-05-29T13:40:19.964192",
            "discount": 0,
            "facilitator_fee": 0,
            "fee": 0.25,
            "id": 4952,
            "is_buyer": false,
            "note": "",
            "resource_uri": null,
            "status": 3,
            "status_url": "",
            "supp_id": "",
            "ticket_number": 1,
            "tip": 0,
            "total": 500
        },
        {
            "account_type": 2,
            "amount": 4000,
            "bank": {
                "id": 3581,
                "nickname": "CHECKING"
            },
            "batch_id": 80,
            "buyer": {
                "buyer_avatar": "https://d7630u3gvmjyq.cloudfront.net/",
                "buyer_fullname": "Sarobar  Kasaju",
                "buyer_id": 3312,
                "has_avatar": false
            },
            "current_location": "39.0437011719,-77.4875030518",
            "date": "May 24",
            "date_settled": "2015-05-29T13:40:20.162859",
            "discount": 0,
            "facilitator_fee": 0,
            "fee": 0.25,
            "id": 4944,
            "is_buyer": false,
            "note": "",
            "resource_uri": null,
            "status": 3,
            "status_url": "",
            "supp_id": "",
            "ticket_number": 1,
            "tip": 0,
            "total": 4000
        },
        {
            "account_type": 2,
            "amount": 2500,
            "bank": {
                "id": 3574,
                "nickname": "CHECKING"
            },
            "batch_id": 80,
            "buyer": {
                "buyer_avatar": "https://d7630u3gvmjyq.cloudfront.net/",
                "buyer_fullname": "Sudina  Sikrakar",
                "buyer_id": 3310,
                "has_avatar": false
            },
            "current_location": "39.0437011719,-77.4875030518",
            "date": "May 24",
            "date_settled": "2015-05-29T13:40:20.236881",
            "discount": 0,
            "facilitator_fee": 0,
            "fee": 0.25,
            "id": 4942,
            "is_buyer": false,
            "note": "",
            "resource_uri": null,
            "status": 3,
            "status_url": "",
            "supp_id": "",
            "ticket_number": 1,
            "tip": 0,
            "total": 2500
        },
        {
            "account_type": 2,
            "amount": 500,
            "bank": {
                "id": 3570,
                "nickname": "Chase Checking"
            },
            "batch_id": 80,
            "buyer": {
                "buyer_avatar": "https://d7630u3gvmjyq.cloudfront.net/",
                "buyer_fullname": "Abindra  Sigdel",
                "buyer_id": 3302,
                "has_avatar": false
            },
            "current_location": "39.0437011719,-77.4875030518",
            "date": "May 24",
            "date_settled": "2015-05-29T13:40:18.063271",
            "discount": 0,
            "facilitator_fee": 0,
            "fee": 0.25,
            "id": 4937,
            "is_buyer": false,
            "note": "",
            "resource_uri": null,
            "status": 3,
            "status_url": "",
            "supp_id": "",
            "ticket_number": 1,
            "tip": 0,
            "total": 500
        },
        {
            "account_type": 2,
            "amount": 1300,
            "bank": {
                "id": 2336,
                "nickname": "BofA Core Checking"
            },
            "batch_id": 80,
            "buyer": {
                "buyer_avatar": "https://d7630u3gvmjyq.cloudfront.net/",
                "buyer_fullname": "Krishu  Nakarmi",
                "buyer_id": 2100,
                "has_avatar": false
            },
            "current_location": "39.0437011719,-77.4875030518",
            "date": "May 24",
            "date_settled": "2015-05-29T13:40:20.087005",
            "discount": 0,
            "facilitator_fee": 0,
            "fee": 0.25,
            "id": 4936,
            "is_buyer": false,
            "note": "",
            "resource_uri": null,
            "status": 3,
            "status_url": "",
            "supp_id": "",
            "ticket_number": 1,
            "tip": 0,
            "total": 1300
        },
        {
            "account_type": 2,
            "amount": 300,
            "bank": {
                "id": 3305,
                "nickname": "Adv Tiered Interest Chkg"
            },
            "batch_id": 80,
            "buyer": {
                "buyer_avatar": "https://d7630u3gvmjyq.cloudfront.net/",
                "buyer_fullname": "Surya  Maharjan",
                "buyer_id": 3091,
                "has_avatar": false
            },
            "current_location": "39.0437011719,-77.4875030518",
            "date": "May 24",
            "date_settled": "2015-05-29T13:40:20.199689",
            "discount": 0,
            "facilitator_fee": 0,
            "fee": 0.25,
            "id": 4935,
            "is_buyer": false,
            "note": "",
            "resource_uri": null,
            "status": 3,
            "status_url": "",
            "supp_id": "",
            "ticket_number": 1,
            "tip": 0,
            "total": 300
        },
        {
            "account_type": 2,
            "amount": 2000,
            "bank": {
                "id": 3564,
                "nickname": "Sri Laxmi"
            },
            "batch_id": 80,
            "buyer": {
                "buyer_avatar": "https://d7630u3gvmjyq.cloudfront.net/",
                "buyer_fullname": "Sushil K Sedhain",
                "buyer_id": 3298,
                "has_avatar": false
            },
            "current_location": "39.0437011719,-77.4875030518",
            "date": "May 23",
            "date_settled": "2015-05-29T13:40:20.276774",
            "discount": 0,
            "facilitator_fee": 0,
            "fee": 0.25,
            "id": 4931,
            "is_buyer": false,
            "note": "",
            "resource_uri": null,
            "status": 3,
            "status_url": "",
            "supp_id": "",
            "ticket_number": 1,
            "tip": 0,
            "total": 2000
        },
        {
            "account_type": 2,
            "amount": 2500,
            "bank": {
                "id": 2663,
                "nickname": "Adv Tiered Interest Chkg"
            },
            "batch_id": 80,
            "buyer": {
                "buyer_avatar": "https://d7630u3gvmjyq.cloudfront.net/",
                "buyer_fullname": "Subash  Shrestha",
                "buyer_id": 2309,
                "has_avatar": false
            },
            "current_location": "39.0437011719,-77.4875030518",
            "date": "May 23",
            "date_settled": "2015-05-29T13:40:20.332362",
            "discount": 0,
            "facilitator_fee": 0,
            "fee": 0.25,
            "id": 4929,
            "is_buyer": false,
            "note": "",
            "resource_uri": null,
            "status": 3,
            "status_url": "",
            "supp_id": "",
            "ticket_number": 1,
            "tip": 0,
            "total": 2500
        },
        {
            "account_type": 2,
            "amount": 4000,
            "bank": {
                "id": 2460,
                "nickname": "Total Checking"
            },
            "batch_id": 80,
            "buyer": {
                "buyer_avatar": "https://d7630u3gvmjyq.cloudfront.net/",
                "buyer_fullname": "Ajit  Gauli",
                "buyer_id": 2182,
                "has_avatar": false
            },
            "current_location": "39.0437011719,-77.4875030518",
            "date": "May 23",
            "date_settled": "2015-05-29T13:40:20.716868",
            "discount": 0,
            "facilitator_fee": 0,
            "fee": 0.25,
            "id": 4928,
            "is_buyer": false,
            "note": "",
            "resource_uri": null,
            "status": 3,
            "status_url": "",
            "supp_id": "",
            "ticket_number": 1,
            "tip": 0,
            "total": 4000
        },
        {
            "account_type": 2,
            "amount": 1020,
            "bank": {
                "id": 3560,
                "nickname": "STUDENT CHKG"
            },
            "batch_id": 80,
            "buyer": {
                "buyer_avatar": "https://d7630u3gvmjyq.cloudfront.net/",
                "buyer_fullname": "Manan  Joshi",
                "buyer_id": 3287,
                "has_avatar": false
            },
            "current_location": "39.0437011719,-77.4875030518",
            "date": "May 22",
            "date_settled": "2015-05-29T13:40:20.642978",
            "discount": 0,
            "facilitator_fee": 0,
            "fee": 0.25,
            "id": 4924,
            "is_buyer": false,
            "note": "",
            "resource_uri": null,
            "status": 3,
            "status_url": "",
            "supp_id": "",
            "ticket_number": 2,
            "tip": 0,
            "total": 1020
        },
        {
            "account_type": 2,
            "amount": 500,
            "bank": {
                "id": 3428,
                "nickname": "BofA Core Checking"
            },
            "batch_id": 80,
            "buyer": {
                "buyer_avatar": "https://d7630u3gvmjyq.cloudfront.net/",
                "buyer_fullname": "Lily  Laemmle",
                "buyer_id": 3165,
                "has_avatar": false
            },
            "current_location": "39.0437011719,-77.4875030518",
            "date": "May 19",
            "date_settled": "2015-05-29T13:40:20.424206",
            "discount": 0,
            "facilitator_fee": 0,
            "fee": 0.25,
            "id": 4857,
            "is_buyer": false,
            "note": "",
            "resource_uri": null,
            "status": 3,
            "status_url": "",
            "supp_id": "",
            "ticket_number": 3,
            "tip": 0,
            "total": 500
        },
        {
            "account_type": 2,
            "amount": 1400,
            "bank": {
                "id": 3381,
                "nickname": "CUSTOM MANAGEMENT(RM)"
            },
            "batch_id": 80,
            "buyer": {
                "buyer_avatar": "https://d7630u3gvmjyq.cloudfront.net/",
                "buyer_fullname": "Raju  Duwal",
                "buyer_id": 3138,
                "has_avatar": false
            },
            "current_location": "39.0437011719,-77.4875030518",
            "date": "May 18",
            "date_settled": "2015-05-29T13:40:20.494317",
            "discount": 0,
            "facilitator_fee": 0,
            "fee": 0.25,
            "id": 4805,
            "is_buyer": false,
            "note": "",
            "resource_uri": null,
            "status": 3,
            "status_url": "",
            "supp_id": "",
            "ticket_number": 1,
            "tip": 0,
            "total": 1400
        },
        {
            "account_type": 2,
            "amount": 2500,
            "bank": {
                "id": 3334,
                "nickname": "Total Checking"
            },
            "batch_id": 80,
            "buyer": {
                "buyer_avatar": "https://d7630u3gvmjyq.cloudfront.net/",
                "buyer_fullname": "Christopher N Huntley",
                "buyer_id": 3103,
                "has_avatar": false
            },
            "current_location": "39.0437011719,-77.4875030518",
            "date": "May 16",
            "date_settled": "2015-05-29T13:40:20.534439",
            "discount": 0,
            "facilitator_fee": 0,
            "fee": 0.25,
            "id": 4770,
            "is_buyer": false,
            "note": "",
            "resource_uri": null,
            "status": 3,
            "status_url": "",
            "supp_id": "",
            "ticket_number": 1,
            "tip": 0,
            "total": 2500
        },
        {
            "account_type": 2,
            "amount": 500,
            "bank": {
                "id": 3308,
                "nickname": "BofA Core Checking"
            },
            "batch_id": 80,
            "buyer": {
                "buyer_avatar": "https://d7630u3gvmjyq.cloudfront.net/",
                "buyer_fullname": "Deepa Shah Kilian",
                "buyer_id": 3090,
                "has_avatar": false
            },
            "current_location": "39.0437011719,-77.4875030518",
            "date": "May 15",
            "date_settled": "2015-05-29T13:40:20.604673",
            "discount": 0,
            "facilitator_fee": 0,
            "fee": 0.25,
            "id": 4766,
            "is_buyer": false,
            "note": "",
            "resource_uri": null,
            "status": 3,
            "status_url": "",
            "supp_id": "",
            "ticket_number": 2,
            "tip": 0,
            "total": 500
        },
        {
            "account_type": 2,
            "amount": 2000,
            "bank": {
                "id": 3278,
                "nickname": "Baikuntha's Checking"
            },
            "batch_id": 80,
            "buyer": {
                "buyer_avatar": "https://d7630u3gvmjyq.cloudfront.net/",
                "buyer_fullname": "Baikuntha Lal Shrestha",
                "buyer_id": 3067,
                "has_avatar": false
            },
            "current_location": "39.0437011719,-77.4875030518",
            "date": "May 14",
            "date_settled": "2015-05-29T13:40:20.679181",
            "discount": 0,
            "facilitator_fee": 0,
            "fee": 0.25,
            "id": 4738,
            "is_buyer": false,
            "note": "",
            "resource_uri": null,
            "status": 3,
            "status_url": "",
            "supp_id": "",
            "ticket_number": 2,
            "tip": 0,
            "total": 2000
        },
        {
            "account_type": 2,
            "amount": 2000,
            "bank": {
                "id": 3274,
                "nickname": "STUDENT CH"
            },
            "batch_id": 80,
            "buyer": {
                "buyer_avatar": "https://d7630u3gvmjyq.cloudfront.net/",
                "buyer_fullname": "Ajita  Raut",
                "buyer_id": 3065,
                "has_avatar": false
            },
            "current_location": "39.0437011719,-77.4875030518",
            "date": "May 14",
            "date_settled": "2015-05-29T13:40:20.377495",
            "discount": 0,
            "facilitator_fee": 0,
            "fee": 0.25,
            "id": 4736,
            "is_buyer": false,
            "note": "",
            "resource_uri": null,
            "status": 3,
            "status_url": "",
            "supp_id": "",
            "ticket_number": 2,
            "tip": 0,
            "total": 2000
        },
        {
            "account_type": 2,
            "amount": 820,
            "bank": {
                "id": 3265,
                "nickname": "TD CONVENIENCE CHECKING"
            },
            "batch_id": 80,
            "buyer": {
                "buyer_avatar": "https://d7630u3gvmjyq.cloudfront.net/",
                "buyer_fullname": "Tejaswi  Nepal",
                "buyer_id": 3054,
                "has_avatar": false
            },
            "current_location": "39.0437011719,-77.4875030518",
            "date": "May 14",
            "date_settled": "2015-05-29T13:40:20.756358",
            "discount": 0,
            "facilitator_fee": 0,
            "fee": 0.25,
            "id": 1912,
            "is_buyer": false,
            "note": "",
            "resource_uri": null,
            "status": 5,
            "status_url": "",
            "supp_id": "",
            "ticket_number": 2,
            "tip": 0,
            "total": 820
        },
        {
            "account_type": 2,
            "amount": 201,
            "bank": {
                "id": 2991,
                "nickname": "CRWN BANKI"
            },
            "batch_id": 80,
            "buyer": {
                "buyer_avatar": "https://d7630u3gvmjyq.cloudfront.net/",
                "buyer_fullname": "Rassendra  Shah",
                "buyer_id": 2661,
                "has_avatar": false
            },
            "current_location": "39.0437011719,-77.4875030518",
            "date": "May 12",
            "date_settled": "2015-05-29T13:40:20.795087",
            "discount": 0,
            "facilitator_fee": 0,
            "fee": 0.25,
            "id": 1914,
            "is_buyer": false,
            "note": "",
            "resource_uri": null,
            "status": 3,
            "status_url": "",
            "supp_id": "",
            "ticket_number": 1,
            "tip": 0,
            "total": 201
        },
        {
            "account_type": 2,
            "amount": 180,
            "bank": {
                "id": 3079,
                "nickname": "eBanking"
            },
            "batch_id": 80,
            "buyer": {
                "buyer_avatar": "https://d7630u3gvmjyq.cloudfront.net/",
                "buyer_fullname": "Tek B Rai",
                "buyer_id": 2807,
                "has_avatar": false
            },
            "current_location": "39.0437,-77.4875",
            "date": "May 08",
            "date_settled": "2015-05-29T13:40:20.795087",
            "discount": 0,
            "facilitator_fee": 0,
            "fee": 0.25,
            "id": 1797,
            "is_buyer": false,
            "note": "",
            "resource_uri": null,
            "status": 3,
            "status_url": "",
            "supp_id": "",
            "ticket_number": 2,
            "tip": 0,
            "total": 180
        },
        {
            "account_type": 2,
            "amount": 200,
            "bank": {
                "id": 2955,
                "nickname": "Checking"
            },
            "batch_id": 80,
            "buyer": {
                "buyer_avatar": "https://d7630u3gvmjyq.cloudfront.net/",
                "buyer_fullname": "Prakriti  Maskey",
                "buyer_id": 2567,
                "has_avatar": false
            },
            "current_location": "39.0437,-77.4875",
            "date": "May 06",
            "date_settled": "2015-05-29T13:40:20.916020",
            "discount": 0,
            "facilitator_fee": 0,
            "fee": 0.25,
            "id": 4578,
            "is_buyer": false,
            "note": "",
            "resource_uri": null,
            "status": 3,
            "status_url": "",
            "supp_id": "",
            "ticket_number": 1,
            "tip": 0,
            "total": 200
        },
        {
            "account_type": 2,
            "amount": 700,
            "bank": {
                "id": 3018,
                "nickname": "eBanking"
            },
            "batch_id": 80,
            "buyer": {
                "buyer_avatar": "https://d7630u3gvmjyq.cloudfront.net/",
                "buyer_fullname": "Sunam Kumari Gurung",
                "buyer_id": 2727,
                "has_avatar": false
            },
            "current_location": "39.0437,-77.4875",
            "date": "May 06",
            "date_settled": "2015-05-29T13:40:20.972601",
            "discount": 0,
            "facilitator_fee": 0,
            "fee": 0.25,
            "id": 4574,
            "is_buyer": false,
            "note": "",
            "resource_uri": null,
            "status": 3,
            "status_url": "",
            "supp_id": "",
            "ticket_number": 1,
            "tip": 0,
            "total": 700
        },
        {
            "account_type": 2,
            "amount": 376,
            "bank": {
                "id": 2945,
                "nickname": "Regular Savings"
            },
            "batch_id": 80,
            "buyer": {
                "buyer_avatar": "https://d7630u3gvmjyq.cloudfront.net/",
                "buyer_fullname": "James M Termini",
                "buyer_id": 2548,
                "has_avatar": false
            },
            "current_location": "39.0437,-77.4875",
            "date": "May 04",
            "date_settled": "2015-05-29T13:40:21.051221",
            "discount": 0,
            "facilitator_fee": 0,
            "fee": 0.25,
            "id": 4534,
            "is_buyer": false,
            "note": "",
            "resource_uri": null,
            "status": 3,
            "status_url": "",
            "supp_id": "",
            "ticket_number": 1,
            "tip": 0,
            "total": 376
        },
        {
            "account_type": 2,
            "amount": 624,
            "bank": {
                "id": 2945,
                "nickname": "Regular Savings"
            },
            "batch_id": 80,
            "buyer": {
                "buyer_avatar": "https://d7630u3gvmjyq.cloudfront.net/",
                "buyer_fullname": "James M Termini",
                "buyer_id": 2548,
                "has_avatar": false
            },
            "current_location": "39.0437,-77.4875",
            "date": "May 04",
            "date_settled": "2015-05-29T13:40:21.116964",
            "discount": 0,
            "facilitator_fee": 0,
            "fee": 0.25,
            "id": 4530,
            "is_buyer": false,
            "note": "",
            "resource_uri": null,
            "status": 3,
            "status_url": "",
            "supp_id": "",
            "ticket_number": 1,
            "tip": 0,
            "total": 624
        }
    ],
    "page": 1,
    "page_count": 2,
    "success": true
}
